Assignment 8 - Autocorrelation
…
# Merge the summary with the singles dataset and spatial polygons
singles_per_region <- mun %>% dplyr::select(NAME_2) %>% merge(DK_population, by.x = "NAME_2", 
    by.y = "Region") %>% merge(DK_civilstatus, by.x = "NAME_2", by.y = "Region") %>% 
    group_by(NAME_2, Sex) %>% filter(Status == "Ugift") %>% mutate(pct_singles_2015 = Y2015K1/sum2015 * 
    100, pct_singles_2016 = Y2016K1/sum2016 * 100, pct_singles_2017 = Y2017K1/sum2017 * 
    100, pct_singles_2018 = Y2018K1/sum2018 * 100, pct_singles_2019 = Y2019K1/sum2019 * 
    100, pct_singles_2020 = Y2020K1/sum2020 * 100)
singles_per_region

Simple feature collection with 198 features and 21 fields
Geometry type: MULTIPOLYGON
Dimension:     XY
Bounding box:  xmin: 441745.6 ymin: 6049775 xmax: 892801.1 ymax: 6402207
Projected CRS: WGS 84 / UTM zone 32N
# A tibble: 198 x 22
# Groups:   NAME_2, Sex [198]
   NAME_2   sum2015 sum2016 sum2017 sum2018 sum2019 sum2020 Status Sex   Y2020K1
 * <chr>      <dbl>   <dbl>   <dbl>   <dbl>   <dbl>   <dbl> <chr>  <chr>   <dbl>
 1 Aabenraa   58904   58869   59003   59089   59035   58761 Ugift  Kvin~   11645
 2 Aabenraa   58904   58869   59003   59089   59035   58761 Ugift  Mnd    13621
 3 Aalborg   207805  210316  211937  213558  215312  217075 Ugift  Mnd    63634
 4 Aalborg   207805  210316  211937  213558  215312  217075 Ugift  Kvin~   54560
 5 Aarhus    326246  330639  335684  340421  345332  349983 Ugift  Mnd   106838
 6 Aarhus    326246  330639  335684  340421  345332  349983 Ugift  Kvin~  101671
 7 r         6276    6290    6177    6178    6058    5964 Ugift  Mnd     1272
 8 r         6276    6290    6177    6178    6058    5964 Ugift  Kvin~     902
 9 Alberts~   27806   27880   27896   27743   27877   27731 Ugift  Mnd     7390
10 Alberts~   27806   27880   27896   27743   27877   27731 Ugift  Kvin~    6405
# ... with 188 more rows, and 12 more variables: Y2019K1 <dbl>, Y2018K1 <dbl>,
#   Y2017K1 <dbl>, Y2016K1 <dbl>, Y2015K1 <dbl>, geometry <MULTIPOLYGON [m]>,
#   pct_singles_2015 <dbl>, pct_singles_2016 <dbl>, pct_singles_2017 <dbl>,
#   pct_singles_2018 <dbl>, pct_singles_2019 <dbl>, pct_singles_2020 <dbl>
…
